…
topwords = words_in_sentences %>% 
  tibble() %>% 
  set_names("commonwords") %>% 
  group_by(commonwords) %>% 
  count() 



topwords
```

    ## # A tibble: 1,904 x 2
    ## # Groups:   commonwords [1,904]
    ##    commonwords     n
    ##    <chr>       <int>
    ##  1 a             202
    ##  2 about           1
    ##  3 abrupt          1
    ##  4 absent          1
    ##  5 account         1
    ##  6 acid            1
    ##  7 across          3
    ##  8 act             4
    ##  9 actor           1
    ## 10 actress         1
    ## # ... with 1,894 more rows
…
